{"response":{"status":"ok","userTier":"developer","total":2157208,"startIndex":1,"pageSize":10,"currentPage":1,"pages":215721,"orderBy":"newest","results":[{"id":"politics/live/2019/dec/01/boris-johnson-faces-marr-in-wake-of-london-bridge-attack-jeremy-corbyn-live","type":"liveblog","sectionId":"politics","sectionName":"Politics","webPublicationDate":"2019-12-01T12:31:38Z","webTitle":"General election: Boris Johnson says 74 convicted terrorists released early from prison – live news","webUrl":"https://www.theguardian.com/politics/live/2019/dec/01/boris-johnson-faces-marr-in-wake-of-london-bridge-attack-jeremy-corbyn-live","apiUrl":"https://content.guardianapis.com/politics/live/2019/dec/01/boris-johnson-faces-marr-in-wake-of-london-bridge-attack-jeremy-corbyn-live","isHosted":false,"pillarId":"pillar/news","pillarName":"News"},{"id":"commentisfree/2019/dec/01/boris-johnson-ignore-lgbt-voters-conservatives-gay","type":"article","sectionId":"commentisfree","sectionName":"Opinion","webPublicationDate":"2019-12-01T12:31:03Z","webTitle":"Has Boris Johnson made a calculated gamble to ignore LGBT voters? | Jonathan Cooper","webUrl":"https://www.theguardian.com/commentisfree/2019/dec/01/boris-johnson-ignore-lgbt-voters-conservatives-gay","apiUrl":"https://content.guardianapis.com/commentisfree/2019/dec/01/boris-johnson-ignore-lgbt-voters-conservatives-gay","isHosted":false,"pillarId":"pillar/opinion","pillarName":"Opinion"},{"id":"uk-news/2019/dec/01/boris-johnson-blames-labour-for-release-of-london-bridge-killer-usman-khan","type":"article","sectionId":"uk-news","sectionName":"UK news","webPublicationDate":"2019-12-01T12:28:53Z","webTitle":"Boris Johnson blames Labour for release of London Bridge killer","webUrl":"https://www.theguardian.com/uk-news/2019/dec/01/boris-johnson-blames-labour-for-release-of-london-bridge-killer-usman-khan","apiUrl":"https://content.guardianapis.com/uk-news/2019/dec/01/boris-johnson-blames-labour-for-release-of-london-bridge-killer-usman-khan","isHosted":false,"pillarId":"pillar/news","pillarName":"News"},{"id":"world/2019/dec/01/protests-india-woman-gang-raped-burned-to-death-hyderabad","type":"article","sectionId":"world","sectionName":"World news","webPublicationDate":"2019-12-01T12:24:40Z","webTitle":"Protests in India after woman gang raped and burned to death","webUrl":"https://www.theguardian.com/world/2019/dec/01/protests-india-woman-gang-raped-burned-to-death-hyderabad","apiUrl":"https://content.guardianapis.com/world/2019/dec/01/protests-india-woman-gang-raped-burned-to-death-hyderabad","isHosted":false,"pillarId":"pillar/news","pillarName":"News"},{"id":"stage/2019/dec/01/jack-dee-off-the-telly-review-chequer-mead-east-grinstead","type":"article","sectionId":"stage","sectionName":"Stage","webPublicationDate":"2019-12-01T12:24:33Z","webTitle":"Jack Dee: Off the Telly review – new targets, same old grump","webUrl":"https://www.theguardian.com/stage/2019/dec/01/jack-dee-off-the-telly-review-chequer-mead-east-grinstead","apiUrl":"https://content.guardianapis.com/stage/2019/dec/01/jack-dee-off-the-telly-review-chequer-mead-east-grinstead","isHosted":false,"pillarId":"pillar/arts","pillarName":"Arts"},{"id":"film/2019/dec/01/the-street-review-zed-nelson-hoxton-east-london","type":"article","sectionId":"film","sectionName":"Film","webPublicationDate":"2019-12-01T12:00:03Z","webTitle":"The Street review – poignant stroll through a disappearing world","webUrl":"https://www.theguardian.com/film/2019/dec/01/the-street-review-zed-nelson-hoxton-east-london","apiUrl":"https://content.guardianapis.com/film/2019/dec/01/the-street-review-zed-nelson-hoxton-east-london","isHosted":false,"pillarId":"pillar/arts","pillarName":"Arts"},{"id":"lifeandstyle/2019/dec/01/pilates-took-me-from-crippling-back-pain-to-amazing-health","type":"article","sectionId":"lifeandstyle","sectionName":"Life and style","webPublicationDate":"2019-12-01T12:00:03Z","webTitle":"'Pilates-changed-my-life’ stories are annoying… but it did","webUrl":"https://www.theguardian.com/lifeandstyle/2019/dec/01/pilates-took-me-from-crippling-back-pain-to-amazing-health","apiUrl":"https://content.guardianapis.com/lifeandstyle/2019/dec/01/pilates-took-me-from-crippling-back-pain-to-amazing-health","isHosted":false,"pillarId":"pillar/lifestyle","pillarName":"Lifestyle"},{"id":"uk-news/2019/dec/01/ex-offender-marc-conway-helped-tackle-london-bridge-attacker","type":"article","sectionId":"uk-news","sectionName":"UK news","webPublicationDate":"2019-12-01T11:53:45Z","webTitle":"Second ex-offender helped tackle London Bridge attacker","webUrl":"https://www.theguardian.com/uk-news/2019/dec/01/ex-offender-marc-conway-helped-tackle-london-bridge-attacker","apiUrl":"https://content.guardianapis.com/uk-news/2019/dec/01/ex-offender-marc-conway-helped-tackle-london-bridge-attacker","isHosted":false,"pillarId":"pillar/news","pillarName":"News"},{"id":"world/2019/dec/01/spanish-police-arrest-suspected-pilot-narco-submarine","type":"article","sectionId":"world","sectionName":"World news","webPublicationDate":"2019-12-01T11:39:12Z","webTitle":"Spanish police arrest suspected pilot of ‘narco-submarine’","webUrl":"https://www.theguardian.com/world/2019/dec/01/spanish-police-arrest-suspected-pilot-narco-submarine","apiUrl":"https://content.guardianapis.com/world/2019/dec/01/spanish-police-arrest-suspected-pilot-narco-submarine","isHosted":false,"pillarId":"pillar/news","pillarName":"News"},{"id":"business/2019/dec/01/johnson-spots-an-opportunity-over-state-aid-and-it-may-work","type":"article","sectionId":"business","sectionName":"Business","webPublicationDate":"2019-12-01T11:23:59Z","webTitle":"Johnson spots an opportunity over state aid – and it may work","webUrl":"https://www.theguardian.com/business/2019/dec/01/johnson-spots-an-opportunity-over-state-aid-and-it-may-work","apiUrl":"https://content.guardianapis.com/business/2019/dec/01/johnson-spots-an-opportunity-over-state-aid-and-it-may-work","isHosted":false,"pillarId":"pillar/news","pillarName":"News"}]}}